"","SLfact","Freq"
"1","4.3",1
"2","4.4",3
"3","4.5",1
"4","4.6",4
"5","4.7",2
"6","4.8",5
"7","4.9",6
"8","5",10
"9","5.1",9
"10","5.2",4
"11","5.3",1
"12","5.4",6
"13","5.5",7
"14","5.6",6
"15","5.7",8
"16","5.8",7
"17","5.9",3
"18","6",6
"19","6.1",6
"20","6.2",4
"21","6.3",9
"22","6.4",7
"23","6.5",5
"24","6.6",2
"25","6.7",8
"26","6.8",3
"27","6.9",4
"28","7",1
"29","7.1",1
"30","7.2",3
"31","7.3",1
"32","7.4",1
"33","7.6",1
"34","7.7",4
"35","7.9",1
